2020-07-22, 84.0
2020-07-23, 46.0
2020-07-24, 46.0
2020-07-27, 15.0
2020-07-28, 37.0
2020-07-29, 74.0
2020-07-30, 46.0
2020-07-31, 65.0
2020-08-03, 32.0
2020-08-04, 70.0
2020-08-05, 55.0
2020-08-06, 35.0
2020-08-07, 48.0
2020-08-10, 41.0
2020-08-11, 54.0
2020-08-13, 68.0
2020-08-14, 33.0
2020-08-17, 43.0
2020-08-18, 22.0
2020-08-20, 65.0
2020-08-20, 28.0
2020-08-21, 23.0
2020-08-23, 63.0
2020-08-24, 32.0
2020-08-26, 75.0
2020-08-26, 88.0
2020-08-27, 53.0
2020-08-28, 45.0
2020-08-31, 60.0
2020-09-01, 55.0
2020-09-02, 60.0
2020-09-03, 80.0
2020-09-04, 60.0
2020-09-06, 45.0
2020-09-07, 75.0
2020-09-08, 75.0
2020-09-09, 88.0
2020-09-10, 75.0
2020-09-11, 80.0
2020-09-12, 58.0
2020-09-13, 83.0
2020-09-14, 85.0
2020-09-15, 79.0
2020-09-16, 80.0
2020-09-17, 75.0
2020-09-18, 70.0
2020-09-21, 50.0
2020-09-22, 90.0
2020-09-23, 48.0
2020-09-24, 40.0
2020-09-25, 53.0
2020-09-26, 65.0
2020-09-27, 66.0
2020-09-28, 48.0
2020-09-29, 85.0
2020-09-30, 65.0
2020-10-01, 68.0
2020-10-02, 20.0
2020-10-05, 63.0
2020-10-06, 35.0
2020-10-07, 31.0
2020-10-08, 56.0
2020-10-09, 90.0
2020-10-12, 70.0
2020-10-13, 73.0
2020-10-14, 70.0
2020-10-15, 80.0
2020-10-16, 80.0
2020-10-17, 58.0
2020-10-18, 73.0
2020-10-19, 65.0
2020-10-19, 0.0
2020-10-20, 11.0
2020-10-21, 52.0
2020-10-22, 51.0
2020-10-23, 83.0
2020-10-26, 70.0
2020-10-27, 53.0
2020-10-28, 90.0
2020-10-30, 75.0
2020-11-02, 58.0
2020-11-03, 48.0
2020-11-04, 46.0
2020-11-05, 38.0
2020-11-06, 18.0
2020-11-07, 11.0
2020-11-08, -28.0
2020-11-09, 38.0
2020-11-10, 80.0
2020-11-11, 80.0
2020-11-12, 45.0
2020-11-13, 15.0
2020-11-16, 51.0
2020-11-17, 63.0
2020-11-18, 78.0
2020-11-19, 43.0
2020-11-20, 58.0
2020-11-23, 31.0
2020-11-24, 15.0
2020-11-30, -5.0
2020-12-01, 66.0
2020-12-02, 70.0
2020-12-03, 11.0
2020-12-04, 66.0
2020-12-07, 1.0
2020-12-08, 73.0
2020-12-09, 35.0
2020-12-10, 83.0
2020-12-11, 78.0
2020-12-14, 60.0
2020-12-15, 8.0
2020-12-16, 70.0
2020-12-17, 95.0
2020-12-18, 33.0
2021-01-04, 25.0
2021-01-05, 52.0
2021-01-06, 18.0
2021-01-07, 10.0
2021-01-08, 8.0
2021-01-10, 60.0
2021-01-11, 70.0
2021-01-12, 58.0
2021-01-13, 70.0
2021-01-14, 68.0
2021-01-15, 8.0
2021-01-19, 90.0
2021-01-20, 25.0
2021-01-21, 17.0
2021-01-22, 60.0
2021-01-25, 65.0
2021-01-26, 43.0
2021-01-27, 60.0
2021-01-28, 58.0
2021-01-29, 48.0
2021-02-01, 55.0
2021-02-02, 43.0
2021-02-03, 30.0
2021-02-04, 15.0
2021-02-05, 28.0
2021-02-08, 65.0
2021-02-09, 75.0
2021-02-10, 40.0
2021-02-11, 73.0
2021-02-12, 60.0
2021-02-15, 55.0
2021-02-16, 70.0
2021-02-17, 73.0
2021-02-18, 70.0
2021-02-19, 43.0
2021-02-22, 26.0
2021-02-23, 35.0
2021-02-24, 68.0
2021-02-25, 43.0
2021-02-26, 30.0
2021-03-01, 80.0
2021-03-02, 55.0
2021-03-03, 70.0
2021-03-04, 70.0
2021-03-06, 70.0
2021-03-08, 60.0
2021-03-09, 43.0
2021-03-10, 38.0
2021-03-11, 15.0
2021-03-12, 35.0
2021-03-15, 75.0
2021-03-16, 45.0
2021-03-17, 50.0
2021-03-18, 70.0
2021-03-19, 65.0
2021-03-22, 68.0
2021-03-23, 53.0
2021-03-24, 33.0
2021-03-25, 40.0
2021-03-26, 65.0
2021-03-29, 45.0
2021-03-30, 85.0
2021-03-31, 38.0
2021-04-01, 30.0
2021-04-06, 70.0
2021-04-07, 80.0
2021-04-08, 48.0
2021-04-09, 38.0
2021-04-13, 60.0
2021-04-15, 38.0
2021-04-19, 90.0
2021-04-20, 80.0
2021-04-21, 20.0
2021-04-22, 60.0
2021-04-23, 95.0
2021-04-26, 85.0
2021-04-27, 80.0
2021-04-28, 65.0
2021-04-29, 50.0
2021-04-30, 75.0
2021-05-03, 75.0
2021-05-04, 38.0
2021-05-05, 70.0
2021-05-06, 75.0
2021-05-07, 80.0
2021-05-10, 15.0
2021-05-11, 70.0
2021-05-14, 90.0
2021-05-14, 100.0
2021-05-17, 75.0
2021-05-18, 70.0
2021-05-19, 90.0
2021-05-20, 75.0
2021-05-21, 70.0
2021-05-24, 90.0
2021-05-25, 95.0
2021-05-26, 40.0
2021-05-27, 60.0
2021-05-28, 60.0
2021-06-01, 38.0
2021-06-02, 75.0
2021-06-03, 80.0
2021-06-04, 75.0